<?xml version="1.0" encoding="UTF-8" standalone="no"?>
<!-- Created with Inkscape (http://www.inkscape.org/) -->

<svg
   width="497.33319"
   height="512.20795"
   viewBox="0 0 131.58607 135.52169"
   version="1.1"
   id="svg5"
   inkscape:version="1.2.2 (b0a8486541, 2022-12-01)"
   sodipodi:docname="lexiographical-r2.svg"
   xmlns:inkscape="http://www.inkscape.org/namespaces/inkscape"
   xmlns:sodipodi="http://sodipodi.sourceforge.net/DTD/sodipodi-0.dtd"
   xmlns="http://www.w3.org/2000/svg"
   xmlns:svg="http://www.w3.org/2000/svg">
  <sodipodi:namedview
     id="namedview7"
     pagecolor="#ffffff"
     bordercolor="#666666"
     borderopacity="1.0"
     inkscape:pageshadow="2"
     inkscape:pageopacity="0.0"
     inkscape:pagecheckerboard="true"
     inkscape:document-units="px"
     showgrid="false"
     units="px"
     inkscape:showpageshadow="0"
     inkscape:deskcolor="#d1d1d1"
     inkscape:zoom="1"
     inkscape:cx="301.99999"
     inkscape:cy="315.99999"
     inkscape:window-width="1353"
     inkscape:window-height="744"
     inkscape:window-x="114"
     inkscape:window-y="37"
     inkscape:window-maximized="0"
     inkscape:current-layer="svg5" />
  <defs
     id="defs2">
    <marker
       style="overflow:visible"
       id="marker1979"
       refX="0"
       refY="0"
       orient="auto-start-reverse"
       inkscape:stockid="Arrow2"
       markerWidth="7.6999998"
       markerHeight="5.5999999"
       viewBox="0 0 7.7 5.6"
       inkscape:isstock="true"
       inkscape:collect="always"
       preserveAspectRatio="xMidYMid">
      <path
         transform="scale(0.7)"
         d="M -2,-4 9,0 -2,4 c 2,-2.33 2,-5.66 0,-8 z"
         style="fill:context-stroke;fill-rule:evenodd;stroke:none"
         id="path1977" />
    </marker>
    <marker
       style="overflow:visible"
       id="marker1891"
       refX="0"
       refY="0"
       orient="auto-start-reverse"
       inkscape:stockid="Arrow2"
       markerWidth="7.6999998"
       markerHeight="5.5999999"
       viewBox="0 0 7.7 5.6"
       inkscape:isstock="true"
       inkscape:collect="always"
       preserveAspectRatio="xMidYMid">
      <path
         transform="scale(0.7)"
         d="M -2,-4 9,0 -2,4 c 2,-2.33 2,-5.66 0,-8 z"
         style="fill:context-stroke;fill-rule:evenodd;stroke:none"
         id="path1889" />
    </marker>
  </defs>
  <rect
     style="fill:#8d8d8d;fill-opacity:0.903386;fill-rule:evenodd;stroke:none;stroke-width:1.05833;stroke-dasharray:none;stroke-dashoffset:0;stroke-opacity:1;paint-order:fill markers stroke;stop-color:#000000"
     id="rect2435"
     width="72.387321"
     height="116.02384"
     x="29.55872"
     y="11.947599" />
  <path
     style="fill:none;stroke:#333333;stroke-width:0.529167;stroke-linecap:butt;stroke-linejoin:miter;stroke-dasharray:none;stroke-opacity:1;marker-end:url(#marker1979)"
     d="M 0,99.896949 H 128.25232"
     id="path1668"
     sodipodi:nodetypes="cc" />
  <path
     style="fill:none;stroke:#333333;stroke-width:0.529167;stroke-linecap:butt;stroke-linejoin:miter;stroke-dasharray:none;stroke-opacity:1;marker-end:url(#marker1891)"
     d="M 29.558718,135.52168 V 3.3337521"
     id="path1670"
     sodipodi:nodetypes="cc" />
  <circle
     style="fill:none;fill-rule:evenodd;stroke:#000000;stroke-width:1.05833;stroke-dasharray:none;stroke-opacity:1;paint-order:fill markers stroke;stop-color:#000000"
     id="path2097"
     cx="29.55872"
     cy="99.89695"
     r="2.7058384" />
  <path
     style="fill:none;stroke:#000000;stroke-width:1.05833;stroke-linecap:butt;stroke-linejoin:miter;stroke-dasharray:none;stroke-opacity:1"
     d="M 29.558718,97.191111 V 11.947599"
     id="path2373"
     sodipodi:nodetypes="cc" />
  <path
     style="fill:none;stroke:#000000;stroke-width:1.05833;stroke-linecap:butt;stroke-linejoin:miter;stroke-dasharray:4.23333, 4.23333;stroke-dashoffset:0;stroke-opacity:1"
     d="m 29.558718,102.60279 v 26.76785"
     id="path2387" />
  <circle
     style="fill:none;fill-rule:evenodd;stroke:#000000;stroke-width:1.05833;stroke-dasharray:none;stroke-opacity:1;paint-order:fill markers stroke;stop-color:#000000"
     id="circle2401"
     cx="101.94604"
     cy="54.208027"
     r="2.7058384" />
  <path
     style="fill:none;stroke:#000000;stroke-width:1.05833;stroke-linecap:butt;stroke-linejoin:miter;stroke-dasharray:4.23332, 4.23332;stroke-dashoffset:0;stroke-opacity:1"
     d="M 101.94604,51.50219 V 10.187334"
     id="path2403"
     sodipodi:nodetypes="cc" />
  <path
     style="fill:none;stroke:#000000;stroke-width:1.05833;stroke-linecap:butt;stroke-linejoin:miter;stroke-dasharray:none;stroke-dashoffset:0;stroke-opacity:1"
     d="M 101.94604,56.913867 V 127.97144"
     id="path2405"
     sodipodi:nodetypes="cc" />
  <text
     xml:space="preserve"
     style="font-size:10.5833px;line-height:1.25;font-family:sans-serif;-inkscape-font-specification:sans-serif;stroke-width:0.264583"
     x="105.91504"
     y="63.720047"
     id="text6779"><tspan
       sodipodi:role="line"
       id="tspan6777"
       style="font-style:normal;font-variant:normal;font-weight:normal;font-stretch:normal;font-size:10.5833px;font-family:'Patrick Hand';-inkscape-font-specification:'Patrick Hand';stroke-width:0.264583"
       x="105.91504"
       y="63.720047">(1,1)</tspan></text>
  <text
     xml:space="preserve"
     style="font-size:10.5833px;line-height:1.25;font-family:sans-serif;-inkscape-font-specification:sans-serif;stroke-width:0.264583"
     x="8.2231741"
     y="111.50174"
     id="text6845"><tspan
       sodipodi:role="line"
       id="tspan6843"
       style="font-style:normal;font-variant:normal;font-weight:normal;font-stretch:normal;font-size:10.5833px;font-family:'Patrick Hand';-inkscape-font-specification:'Patrick Hand';stroke-width:0.264583"
       x="8.2231741"
       y="111.50174">(0,0)</tspan></text>
</svg>
