<?xml version="1.0" encoding="UTF-8" standalone="no"?>
<!-- Created with Inkscape (http://www.inkscape.org/) -->

<svg
   width="281.15717"
   height="182.21207"
   viewBox="0 0 74.389498 48.210277"
   version="1.1"
   id="svg5"
   inkscape:version="1.3.2 (091e20ef0f, 2023-11-25)"
   sodipodi:docname="heat-sink.svg"
   xmlns:inkscape="http://www.inkscape.org/namespaces/inkscape"
   xmlns:sodipodi="http://sodipodi.sourceforge.net/DTD/sodipodi-0.dtd"
   xmlns="http://www.w3.org/2000/svg"
   xmlns:svg="http://www.w3.org/2000/svg">
  <sodipodi:namedview
     id="namedview7"
     pagecolor="#ffffff"
     bordercolor="#666666"
     borderopacity="1.0"
     inkscape:pageshadow="2"
     inkscape:pageopacity="0.0"
     inkscape:pagecheckerboard="true"
     inkscape:document-units="px"
     showgrid="false"
     units="px"
     inkscape:showpageshadow="0"
     inkscape:deskcolor="#d1d1d1"
     inkscape:zoom="2.0938813"
     inkscape:cx="98.859472"
     inkscape:cy="95.99398"
     inkscape:window-width="1353"
     inkscape:window-height="816"
     inkscape:window-x="617"
     inkscape:window-y="77"
     inkscape:window-maximized="0"
     inkscape:current-layer="svg5" />
  <defs
     id="defs2">
    <marker
       style="overflow:visible"
       id="marker4"
       refX="0"
       refY="0"
       orient="auto-start-reverse"
       inkscape:stockid="Concave triangle arrow"
       markerWidth="1"
       markerHeight="1"
       viewBox="0 0 1 1"
       inkscape:isstock="true"
       inkscape:collect="always"
       preserveAspectRatio="xMidYMid">
      <path
         transform="scale(0.7)"
         d="M -2,-4 9,0 -2,4 c 2,-2.33 2,-5.66 0,-8 z"
         style="fill:context-stroke;fill-rule:evenodd;stroke:none"
         id="path4" />
    </marker>
    <marker
       style="overflow:visible"
       id="ConcaveTriangle"
       refX="0"
       refY="0"
       orient="auto-start-reverse"
       inkscape:stockid="Concave triangle arrow"
       markerWidth="1"
       markerHeight="1"
       viewBox="0 0 1 1"
       inkscape:isstock="true"
       inkscape:collect="always"
       preserveAspectRatio="xMidYMid">
      <path
         transform="scale(0.7)"
         d="M -2,-4 9,0 -2,4 c 2,-2.33 2,-5.66 0,-8 z"
         style="fill:context-stroke;fill-rule:evenodd;stroke:none"
         id="path7" />
    </marker>
  </defs>
  <path
     id="rect3"
     style="fill:#505050;fill-opacity:0.501961;fill-rule:evenodd;stroke:#222222;stroke-width:0.529167;stroke-linecap:round;stroke-linejoin:round;paint-order:fill markers stroke"
     d="M 6.2793999,24.391465 H 72.883427 c 0,0 -0.572719,1.163916 -0.578206,1.884731 -0.0055,0.720815 1.20154,1.244643 1.222506,2.006047 0.02097,0.761405 -0.6443,2.092395 -0.6443,2.092395 H 6.2793999 Z"
     sodipodi:nodetypes="cczzccc" />
  <rect
     style="fill:#808080;fill-opacity:1;fill-rule:evenodd;stroke:#222222;stroke-width:0.529167;stroke-linecap:round;stroke-linejoin:round;stroke-dasharray:none;stroke-dashoffset:0;paint-order:fill markers stroke"
     id="rect1"
     width="6.1470942"
     height="46.171925"
     x="0.2645835"
     y="1.7737696"
     ry="0.75291693" />
  <path
     style="fill:none;stroke:#000000;stroke-width:0.264583;stroke-linecap:butt;stroke-linejoin:miter;stroke-dasharray:none;stroke-opacity:1;marker-end:url(#ConcaveTriangle)"
     d="M 6.6762605,20.761682 H 70.66098"
     id="path1"
     sodipodi:nodetypes="cc" />
  <path
     style="fill:none;stroke:#000000;stroke-width:0.264583;stroke-linecap:butt;stroke-linejoin:miter;stroke-dasharray:none;stroke-opacity:1;marker-end:url(#marker4)"
     d="M 10.24489,5.0036107 4.7758905,9.4638287"
     id="path3"
     sodipodi:nodetypes="cc" />
  <text
     xml:space="preserve"
     style="font-size:5.64444px;line-height:1;font-family:'Patrick Hand';-inkscape-font-specification:'Patrick Hand';white-space:pre;inline-size:53.2321;display:inline;stroke-width:0.264583"
     x="148.85802"
     y="-53.931431"
     id="text4"
     transform="translate(-137.35529,58.458981)"><tspan
       x="148.85802"
       y="-53.931431"
       id="tspan1">Heat sink at constant </tspan><tspan
       x="148.85802"
       y="-48.286992"
       id="tspan3">temperature T<tspan
   style="font-size:65%;baseline-shift:sub"
   id="tspan2">1</tspan></tspan></text>
  <text
     xml:space="preserve"
     style="font-size:5.64444px;line-height:1.25;font-family:'Patrick Hand';-inkscape-font-specification:'Patrick Hand';stroke-width:0.264583"
     x="68.33773"
     y="19.4342"
     id="text6"><tspan
       sodipodi:role="line"
       id="tspan6"
       style="font-size:5.64444px;stroke-width:0.264583"
       x="68.33773"
       y="19.4342">x</tspan></text>
  <text
     xml:space="preserve"
     style="font-size:5.64444px;line-height:1;font-family:'Patrick Hand';-inkscape-font-specification:'Patrick Hand';white-space:pre;inline-size:52.3051;display:inline;stroke-width:0.264583"
     x="20.02273"
     y="40.654182"
     id="text7"
     transform="translate(0,-1.5875)"><tspan
       x="20.02273"
       y="40.654182"
       id="tspan4">Rod with initial constant </tspan><tspan
       x="20.02273"
       y="46.298621"
       id="tspan8">temperature T<tspan
   style="font-size:65%;baseline-shift:sub"
   id="tspan5">0</tspan></tspan></text>
  <path
     style="fill:none;stroke:#000000;stroke-width:0.264583;stroke-linecap:butt;stroke-linejoin:miter;stroke-dasharray:none;stroke-opacity:1;marker-end:url(#marker4)"
     d="M 18.181198,37.82268 14.445735,29.173776"
     id="path9"
     sodipodi:nodetypes="cc" />
</svg>
