<?xml version="1.0" encoding="UTF-8" standalone="no"?>
<!-- Created with Inkscape (http://www.inkscape.org/) -->

<svg
   width="341.98163"
   height="131.0126"
   viewBox="0 0 90.482638 34.663752"
   version="1.1"
   id="svg5"
   inkscape:version="1.2.2 (b0a8486541, 2022-12-01)"
   sodipodi:docname="hausdorff.svg"
   xmlns:inkscape="http://www.inkscape.org/namespaces/inkscape"
   xmlns:sodipodi="http://sodipodi.sourceforge.net/DTD/sodipodi-0.dtd"
   xmlns="http://www.w3.org/2000/svg"
   xmlns:svg="http://www.w3.org/2000/svg">
  <sodipodi:namedview
     id="namedview7"
     pagecolor="#ffffff"
     bordercolor="#666666"
     borderopacity="1.0"
     inkscape:pageshadow="2"
     inkscape:pageopacity="0.0"
     inkscape:pagecheckerboard="true"
     inkscape:document-units="px"
     showgrid="false"
     units="px"
     inkscape:showpageshadow="0"
     inkscape:deskcolor="#d1d1d1"
     inkscape:zoom="1"
     inkscape:cx="96"
     inkscape:cy="17"
     inkscape:window-width="1353"
     inkscape:window-height="744"
     inkscape:window-x="114"
     inkscape:window-y="37"
     inkscape:window-maximized="0"
     inkscape:current-layer="svg5" />
  <defs
     id="defs2" />
  <circle
     style="fill:#000000;fill-opacity:1;fill-rule:evenodd;stroke:none;stroke-width:0.396875;stroke-linecap:round;paint-order:fill markers stroke;stop-color:#000000"
     id="path860"
     cx="15.10694"
     cy="19.45966"
     r="2.2574391" />
  <circle
     style="fill:#000000;fill-opacity:1;fill-rule:evenodd;stroke:none;stroke-width:0.396875;stroke-linecap:round;paint-order:fill markers stroke;stop-color:#000000"
     id="circle914"
     cx="67.208748"
     cy="16.984509"
     r="2.2574391" />
  <text
     xml:space="preserve"
     style="font-size:7.05556px;line-height:1.25;font-family:'Patrick Hand';-inkscape-font-specification:'Patrick Hand';stroke-width:0.264583"
     x="10.90887"
     y="27.194248"
     id="text1024"><tspan
       sodipodi:role="line"
       id="tspan1022"
       style="stroke-width:0.264583"
       x="10.90887"
       y="27.194248">x</tspan></text>
  <text
     xml:space="preserve"
     style="font-size:7.05556px;line-height:1.25;font-family:'Patrick Hand';-inkscape-font-specification:'Patrick Hand';stroke-width:0.264583"
     x="62.63525"
     y="24.609577"
     id="text1078"><tspan
       sodipodi:role="line"
       id="tspan1076"
       style="stroke-width:0.264583"
       x="62.63525"
       y="24.609577">y</tspan></text>
  <path
     style="fill:none;stroke:#000000;stroke-width:0.529167;stroke-linecap:butt;stroke-linejoin:miter;stroke-dasharray:2.11667, 2.11667;stroke-dashoffset:0;stroke-opacity:1"
     d="m 1.6019112,9.7861617 c 3.090173,-5.297155 8.9965568,-8.84850496 15.7752558,-9.46691596 6.778699,-0.61841 10.869543,3.10337796 13.673822,7.17728596 2.804279,4.0739083 5.875134,7.5171203 4.912619,11.7043803 -1.51674,7.394777 -6.025691,6.447246 -9.981067,9.06076 -2.630919,1.824024 -6.437013,5.161501 -8.577154,5.865971 C 12.268351,35.907567 3.3282382,29.953403 1.2323842,24.049995 0.64419322,19.03269 -0.79469878,13.894417 1.6019112,9.7861617 Z"
     id="path1206"
     sodipodi:nodetypes="azzcccca" />
  <path
     style="fill:none;stroke:#000000;stroke-width:0.529167;stroke-linecap:butt;stroke-linejoin:miter;stroke-dasharray:2.11667, 2.11667;stroke-dashoffset:0;stroke-opacity:1"
     d="m 46.462442,14.263834 c 4.442924,-6.5047653 8.211108,-9.6186253 13.772666,-9.9061063 5.561558,-0.28748 8.837868,-0.803607 12.795972,-0.917898 3.958104,-0.11429 13.986079,-0.608707 16.388019,2.052365 2.40194,2.661072 -0.17653,4.7191493 -1.12169,5.6966993 -0.94516,0.97755 -1.47515,-0.584303 -3.68456,2.883786 -2.20941,3.468089 -4.26827,12.61911 -7.900727,15.796194 -3.63246,3.177084 -9.740961,6.107012 -13.989514,3.165059 -4.226525,-2.9267 -20.70309,-12.265334 -16.260166,-18.770099 z"
     id="path1208"
     sodipodi:nodetypes="zzzzzzzsz" />
</svg>
