<?xml version="1.0" encoding="UTF-8" standalone="no"?>
<!-- Created with Inkscape (http://www.inkscape.org/) -->

<svg
   width="463.30606"
   height="354.26266"
   viewBox="0 0 122.58306 93.731999"
   version="1.1"
   id="svg5"
   inkscape:version="1.2.2 (b0a8486541, 2022-12-01)"
   sodipodi:docname="same_topology.svg"
   xmlns:inkscape="http://www.inkscape.org/namespaces/inkscape"
   xmlns:sodipodi="http://sodipodi.sourceforge.net/DTD/sodipodi-0.dtd"
   xmlns="http://www.w3.org/2000/svg"
   xmlns:svg="http://www.w3.org/2000/svg">
  <sodipodi:namedview
     id="namedview7"
     pagecolor="#ffffff"
     bordercolor="#666666"
     borderopacity="1.0"
     inkscape:pageshadow="2"
     inkscape:pageopacity="0.0"
     inkscape:pagecheckerboard="true"
     inkscape:document-units="px"
     showgrid="false"
     units="px"
     inkscape:showpageshadow="0"
     inkscape:deskcolor="#d1d1d1"
     inkscape:zoom="0.1767767"
     inkscape:cx="101.82337"
     inkscape:cy="486.48945"
     inkscape:window-width="1353"
     inkscape:window-height="744"
     inkscape:window-x="114"
     inkscape:window-y="37"
     inkscape:window-maximized="0"
     inkscape:current-layer="svg5" />
  <defs
     id="defs2" />
  <circle
     style="fill:none;fill-rule:evenodd;stroke:#000000;stroke-width:0.828223;stroke-dasharray:none;stroke-opacity:1;paint-order:fill markers stroke;stop-color:#000000"
     id="path785"
     cx="-236.44064"
     cy="50.907295"
     r="25.437559" />
  <circle
     style="fill:none;fill-rule:evenodd;stroke:#000000;stroke-width:0.693453;stroke-dasharray:2.08036, 2.08036;stroke-dashoffset:0;stroke-opacity:1;paint-order:fill markers stroke;stop-color:#000000"
     id="path891"
     cx="89.840935"
     cy="57.828178"
     r="20.160542" />
  <text
     xml:space="preserve"
     style="font-style:normal;font-variant:normal;font-weight:normal;font-stretch:normal;font-size:7.05556px;line-height:1.25;font-family:'Patrick Hand';-inkscape-font-specification:'Patrick Hand';stroke-width:0.264583"
     x="-240.01242"
     y="58.209541"
     id="text1488"><tspan
       sodipodi:role="line"
       id="tspan1486"
       style="font-style:normal;font-variant:normal;font-weight:normal;font-stretch:normal;font-family:'Patrick Hand';-inkscape-font-specification:'Patrick Hand';stroke-width:0.264583"
       x="-240.01242"
       y="58.209541">a</tspan></text>
  <circle
     style="fill:#000000;fill-rule:evenodd;stroke:#000000;stroke-width:1.32292;paint-order:fill markers stroke;stop-color:#000000"
     id="path417"
     cx="-236.44064"
     cy="50.907295"
     r="0.9057526" />
  <circle
     style="fill:#000000;fill-rule:evenodd;stroke:#000000;stroke-width:1.32292;paint-order:fill markers stroke;stop-color:#000000"
     id="circle419"
     cx="-193.97888"
     cy="49.695595"
     r="0.9057526" />
  <text
     xml:space="preserve"
     style="font-style:normal;font-variant:normal;font-weight:normal;font-stretch:normal;font-size:7.05556px;line-height:1.25;font-family:'Patrick Hand';-inkscape-font-specification:'Patrick Hand';stroke-width:0.264583"
     x="-198.0363"
     y="58.359093"
     id="text423"><tspan
       sodipodi:role="line"
       id="tspan421"
       style="font-style:normal;font-variant:normal;font-weight:normal;font-stretch:normal;font-family:'Patrick Hand';-inkscape-font-specification:'Patrick Hand';stroke-width:0.264583"
       x="-198.0363"
       y="58.359093">b</tspan></text>
  <path
     style="fill:none;stroke:#000000;stroke-width:0.529167;stroke-linecap:butt;stroke-linejoin:miter;stroke-dasharray:1.5875, 1.5875;stroke-dashoffset:0;stroke-opacity:1"
     d="M -238.77783,49.393352 -254.51204,35.109258"
     id="path538" />
  <path
     style="fill:none;stroke:#000000;stroke-width:0.529167;stroke-linecap:butt;stroke-linejoin:miter;stroke-dasharray:1.5875, 1.5875;stroke-dashoffset:0;stroke-opacity:1"
     d="m -170.09919,29.464134 -21.98905,18.673281"
     id="path1094"
     sodipodi:nodetypes="cc" />
  <text
     xml:space="preserve"
     style="font-style:normal;font-variant:normal;font-weight:normal;font-stretch:normal;font-size:7.05556px;line-height:1.25;font-family:'Patrick Hand';-inkscape-font-specification:'Patrick Hand';stroke-width:0.264583"
     x="-223.3289"
     y="50.93071"
     id="text1194"><tspan
       sodipodi:role="line"
       id="tspan1192"
       style="font-style:normal;font-variant:normal;font-weight:normal;font-stretch:normal;font-family:'Patrick Hand';-inkscape-font-specification:'Patrick Hand';stroke-width:0.264583"
       x="-223.3289"
       y="50.93071">c</tspan></text>
  <circle
     style="fill:#000000;fill-rule:evenodd;stroke:#000000;stroke-width:1.32292;paint-order:fill markers stroke;stop-color:#000000"
     id="circle1196"
     cx="-219.75713"
     cy="43.62846"
     r="0.9057526" />
  <text
     xml:space="preserve"
     style="font-style:normal;font-variant:normal;font-weight:normal;font-stretch:normal;font-size:7.05556px;line-height:1.25;font-family:'Patrick Hand';-inkscape-font-specification:'Patrick Hand';stroke-width:0.264583"
     x="-254.1178"
     y="45.667885"
     id="text1200"><tspan
       sodipodi:role="line"
       id="tspan1198"
       style="font-style:normal;font-variant:normal;font-weight:normal;font-stretch:normal;font-family:'Patrick Hand';-inkscape-font-specification:'Patrick Hand';stroke-width:0.264583"
       x="-254.1178"
       y="45.667885">ε</tspan></text>
  <text
     xml:space="preserve"
     style="font-style:normal;font-variant:normal;font-weight:normal;font-stretch:normal;font-size:7.05556px;line-height:1.25;font-family:'Patrick Hand';-inkscape-font-specification:'Patrick Hand';stroke-width:0.264583"
     x="-179.41396"
     y="44.746075"
     id="text1204"><tspan
       sodipodi:role="line"
       id="tspan1202"
       style="font-style:normal;font-variant:normal;font-weight:normal;font-stretch:normal;font-family:'Patrick Hand';-inkscape-font-specification:'Patrick Hand';stroke-width:0.264583"
       x="-179.41396"
       y="44.746075">δ</tspan></text>
  <path
     style="fill:none;stroke:#000000;stroke-width:0.79375;stroke-linecap:butt;stroke-linejoin:miter;stroke-dasharray:none;stroke-opacity:1"
     d="m -130.7238,52.760634 c -4.27813,-4.714033 1.2798,-4.205508 -1.9516,-9.610124 -2.24295,-5.870996 -4.27421,-11.91487 -4.44788,-18.263987 -0.13838,-4.759768 -1.21673,-9.705722 0.1625,-14.36643 2.06077,-4.5769646 7.72242,-3.7925486 11.76153,-4.9068376 8.22567,-23.2753134 16.35483,1.7846222 31.591888,-0.49609 11.01141,-4.25262405 17.46071,6.4926216 24.84242,7.9486386 7.75252,1.64457 21.24348,5.902208 21.76741,13.257766 3.27898,7.482786 7.90987,15.444829 7.77539,24.103757 -0.0389,4.778206 -1.87496,9.553848 -3.94841,13.751941 -2.05443,5.569636 -5.85033,11.541971 -11.99181,12.97657 -4.27684,0.596767 -8.25338,0.08707 -12.27148,-0.03543 -5.42898,0.292203 -9.26331,-4.048686 -11.94793,-8.207923 -3.11818,-3.889407 -4.35493,-9.501089 -8.99118,-11.990667 -3.83891,-1.678428 -8.46467,-5.148174 -12.696588,-5.603097 -5.04458,-1.326775 -9.83281,1.683733 -13.76175,5.07393 -5.04334,4.136013 -9.77453,3.109308 -15.89251,-3.632017 z"
     id="path932"
     sodipodi:nodetypes="ccccccccccccccccc" />
  <path
     style="fill:none;stroke:#000000;stroke-width:0.887561;stroke-linecap:butt;stroke-linejoin:miter;stroke-dasharray:none;stroke-opacity:1"
     d="M 66.448658,93.228423 C 18.785478,92.08361 31.017018,68.678432 14.114898,51.217621 -2.787222,33.75681 -1.345182,12.687878 4.280908,8.8523946 c 5.6261,-3.8354832 20.76467,-18.3243382 48.3241,2.8258994 22.45062,17.229522 29.69249,-8.4898186 53.793752,12.233769 15.88577,13.659468 18.71638,21.545454 13.07361,38.253999 -5.64279,16.708545 -5.36054,32.207174 -53.023712,31.062361 z"
     id="path1086"
     sodipodi:nodetypes="zsssssz" />
  <rect
     style="fill:none;fill-rule:evenodd;stroke:#000000;stroke-width:0.529167;stroke-dasharray:1.5875, 1.5875;stroke-dashoffset:0;paint-order:fill markers stroke;stop-color:#000000"
     id="rect1140"
     width="21.096018"
     height="21.096018"
     x="80.061043"
     y="46.228168" />
</svg>
