<?xml version="1.0" encoding="UTF-8" standalone="no"?>
<!-- Created with Inkscape (http://www.inkscape.org/) -->

<svg
   width="392.02585"
   height="206.72867"
   viewBox="0 0 103.72351 54.696962"
   version="1.1"
   id="svg5"
   inkscape:version="1.1.2 (0a00cf5339, 2022-02-04)"
   sodipodi:docname="cauchy-integral-small.svg"
   xmlns:inkscape="http://www.inkscape.org/namespaces/inkscape"
   xmlns:sodipodi="http://sodipodi.sourceforge.net/DTD/sodipodi-0.dtd"
   xmlns="http://www.w3.org/2000/svg"
   xmlns:svg="http://www.w3.org/2000/svg">
  <sodipodi:namedview
     id="namedview7"
     pagecolor="#ffffff"
     bordercolor="#666666"
     borderopacity="1.0"
     inkscape:pageshadow="2"
     inkscape:pageopacity="0.0"
     inkscape:pagecheckerboard="true"
     inkscape:document-units="px"
     showgrid="false"
     units="px"
     inkscape:zoom="3.3360998"
     inkscape:cx="285.21329"
     inkscape:cy="99.217655"
     inkscape:window-width="1421"
     inkscape:window-height="884"
     inkscape:window-x="328"
     inkscape:window-y="76"
     inkscape:window-maximized="0"
     inkscape:current-layer="layer1"
     inkscape:snap-global="true"
     inkscape:snap-object-midpoints="true"
     inkscape:object-paths="true" />
  <defs
     id="defs2">
    <marker
       style="overflow:visible"
       id="Arrow2Mstart"
       refX="0.0"
       refY="0.0"
       orient="auto"
       inkscape:stockid="Arrow2Mstart"
       inkscape:isstock="true">
      <path
         transform="scale(0.6) translate(0,0)"
         d="M 8.7185878,4.0337352 L -2.2072895,0.016013256 L 8.7185884,-4.0017078 C 6.9730900,-1.6296469 6.9831476,1.6157441 8.7185878,4.0337352 z "
         style="stroke:context-stroke;fill-rule:evenodd;fill:context-stroke;stroke-width:0.62500000;stroke-linejoin:round"
         id="path1155" />
    </marker>
    <marker
       style="overflow:visible;"
       id="Arrow2Mend"
       refX="0.0"
       refY="0.0"
       orient="auto"
       inkscape:stockid="Arrow2Mend"
       inkscape:isstock="true">
      <path
         transform="scale(0.6) rotate(180) translate(0,0)"
         d="M 8.7185878,4.0337352 L -2.2072895,0.016013256 L 8.7185884,-4.0017078 C 6.9730900,-1.6296469 6.9831476,1.6157441 8.7185878,4.0337352 z "
         style="stroke:context-stroke;fill-rule:evenodd;fill:context-stroke;stroke-width:0.62500000;stroke-linejoin:round;"
         id="path1158" />
    </marker>
    <inkscape:path-effect
       effect="bspline"
       id="path-effect1129"
       is_visible="true"
       lpeversion="1"
       weight="33.333333"
       steps="2"
       helper_size="0"
       apply_no_weight="true"
       apply_with_weight="true"
       only_selected="false" />
    <inkscape:path-effect
       effect="bspline"
       id="path-effect27127"
       is_visible="true"
       lpeversion="1"
       weight="33.333333"
       steps="2"
       helper_size="0"
       apply_no_weight="true"
       apply_with_weight="true"
       only_selected="false" />
    <inkscape:path-effect
       effect="bspline"
       id="path-effect26866"
       is_visible="true"
       lpeversion="1"
       weight="33.333333"
       steps="2"
       helper_size="0"
       apply_no_weight="true"
       apply_with_weight="true"
       only_selected="false" />
    <inkscape:path-effect
       effect="bspline"
       id="path-effect26860"
       is_visible="true"
       lpeversion="1"
       weight="33.333333"
       steps="2"
       helper_size="0"
       apply_no_weight="true"
       apply_with_weight="true"
       only_selected="false" />
    <inkscape:path-effect
       effect="bspline"
       id="path-effect26854"
       is_visible="true"
       lpeversion="1"
       weight="33.333333"
       steps="2"
       helper_size="0"
       apply_no_weight="true"
       apply_with_weight="true"
       only_selected="false" />
    <inkscape:path-effect
       effect="bspline"
       id="path-effect26848"
       is_visible="true"
       lpeversion="1"
       weight="33.333333"
       steps="2"
       helper_size="0"
       apply_no_weight="true"
       apply_with_weight="true"
       only_selected="false" />
    <inkscape:path-effect
       effect="bspline"
       id="path-effect26842"
       is_visible="true"
       lpeversion="1"
       weight="33.333333"
       steps="2"
       helper_size="0"
       apply_no_weight="true"
       apply_with_weight="true"
       only_selected="false" />
    <inkscape:path-effect
       effect="bspline"
       id="path-effect26836"
       is_visible="true"
       lpeversion="1"
       weight="33.333333"
       steps="2"
       helper_size="0"
       apply_no_weight="true"
       apply_with_weight="true"
       only_selected="false" />
    <inkscape:path-effect
       effect="bspline"
       id="path-effect26830"
       is_visible="true"
       lpeversion="1"
       weight="33.333333"
       steps="2"
       helper_size="0"
       apply_no_weight="true"
       apply_with_weight="true"
       only_selected="false" />
    <inkscape:path-effect
       effect="bspline"
       id="path-effect26824"
       is_visible="true"
       lpeversion="1"
       weight="33.333333"
       steps="2"
       helper_size="0"
       apply_no_weight="true"
       apply_with_weight="true"
       only_selected="false" />
    <inkscape:path-effect
       effect="bspline"
       id="path-effect26642"
       is_visible="true"
       lpeversion="1"
       weight="33.333333"
       steps="2"
       helper_size="0"
       apply_no_weight="true"
       apply_with_weight="true"
       only_selected="false" />
    <inkscape:path-effect
       effect="bspline"
       id="path-effect26636"
       is_visible="true"
       lpeversion="1"
       weight="33.333333"
       steps="2"
       helper_size="0"
       apply_no_weight="true"
       apply_with_weight="true"
       only_selected="false" />
    <inkscape:path-effect
       effect="bspline"
       id="path-effect26630"
       is_visible="true"
       lpeversion="1"
       weight="33.333333"
       steps="2"
       helper_size="0"
       apply_no_weight="true"
       apply_with_weight="true"
       only_selected="false" />
    <inkscape:path-effect
       effect="bspline"
       id="path-effect26624"
       is_visible="true"
       lpeversion="1"
       weight="33.333333"
       steps="2"
       helper_size="0"
       apply_no_weight="true"
       apply_with_weight="true"
       only_selected="false" />
    <inkscape:path-effect
       effect="bspline"
       id="path-effect26618"
       is_visible="true"
       lpeversion="1"
       weight="33.333333"
       steps="2"
       helper_size="0"
       apply_no_weight="true"
       apply_with_weight="true"
       only_selected="false" />
    <inkscape:path-effect
       effect="bspline"
       id="path-effect26612"
       is_visible="true"
       lpeversion="1"
       weight="33.333333"
       steps="2"
       helper_size="0"
       apply_no_weight="true"
       apply_with_weight="true"
       only_selected="false" />
    <inkscape:path-effect
       effect="bspline"
       id="path-effect26606"
       is_visible="true"
       lpeversion="1"
       weight="33.333333"
       steps="2"
       helper_size="0"
       apply_no_weight="true"
       apply_with_weight="true"
       only_selected="false" />
    <inkscape:path-effect
       effect="bspline"
       id="path-effect26600"
       is_visible="true"
       lpeversion="1"
       weight="33.333333"
       steps="2"
       helper_size="0"
       apply_no_weight="true"
       apply_with_weight="true"
       only_selected="false" />
    <inkscape:path-effect
       effect="bspline"
       id="path-effect26434"
       is_visible="true"
       lpeversion="1"
       weight="33.333333"
       steps="2"
       helper_size="0"
       apply_no_weight="true"
       apply_with_weight="true"
       only_selected="false" />
    <inkscape:path-effect
       effect="bspline"
       id="path-effect25646"
       is_visible="true"
       lpeversion="1"
       weight="33.333333"
       steps="2"
       helper_size="0"
       apply_no_weight="true"
       apply_with_weight="true"
       only_selected="false" />
    <inkscape:path-effect
       effect="bspline"
       id="path-effect25609"
       is_visible="true"
       lpeversion="1"
       weight="33.333333"
       steps="2"
       helper_size="0"
       apply_no_weight="true"
       apply_with_weight="true"
       only_selected="false" />
    <inkscape:path-effect
       effect="bspline"
       id="path-effect18631"
       is_visible="true"
       lpeversion="1"
       weight="33.333333"
       steps="2"
       helper_size="0"
       apply_no_weight="true"
       apply_with_weight="true"
       only_selected="false" />
    <inkscape:path-effect
       effect="bspline"
       id="path-effect18372"
       is_visible="true"
       lpeversion="1"
       weight="33.333333"
       steps="2"
       helper_size="0"
       apply_no_weight="true"
       apply_with_weight="true"
       only_selected="false" />
    <inkscape:path-effect
       effect="bspline"
       id="path-effect25646-3"
       is_visible="true"
       lpeversion="1"
       weight="33.333333"
       steps="2"
       helper_size="0"
       apply_no_weight="true"
       apply_with_weight="true"
       only_selected="false" />
  </defs>
  <g
     inkscape:label="Layer 1"
     inkscape:groupmode="layer"
     id="layer1"
     transform="translate(-62.675499,-167.42733)">
    <g
       id="g4003">
      <path
         id="path27310"
         style="fill:none;stroke:#4c4c4c;stroke-width:0.999999;stroke-linecap:round;stroke-linejoin:miter;stroke-miterlimit:4;stroke-dasharray:none;stroke-opacity:1"
         d="m 14.122881,140.40752 28.502334,50.71902"
         transform="matrix(0.26458334,0,0,0.26458334,62.675499,167.42733)" />
      <path
         id="path4047"
         style="fill:none;stroke:#4c4c4c;stroke-width:0.999999;stroke-linecap:round;stroke-linejoin:miter;stroke-miterlimit:4;stroke-dasharray:none;stroke-opacity:1"
         d="m 24.25633,107.72477 43.683317,77.73316"
         transform="matrix(0.26458334,0,0,0.26458334,62.675499,167.42733)" />
      <path
         id="path4045"
         style="fill:none;stroke:#4c4c4c;stroke-width:0.999999;stroke-linecap:round;stroke-linejoin:miter;stroke-miterlimit:4;stroke-dasharray:none;stroke-opacity:1"
         d="m 37.296981,80.215329 56.08124,99.794911"
         transform="matrix(0.26458334,0,0,0.26458334,62.675499,167.42733)" />
      <path
         id="path4043"
         style="fill:none;stroke:#4c4c4c;stroke-width:0.999999;stroke-linecap:round;stroke-linejoin:miter;stroke-miterlimit:4;stroke-dasharray:none;stroke-opacity:1"
         d="M 73.791569,43.726562 C 99.761148,89.938655 125.73053,136.15041 151.69969,182.36178"
         transform="matrix(0.26458334,0,0,0.26458334,62.675499,167.42733)" />
      <path
         id="path4041"
         style="fill:none;stroke:#4c4c4c;stroke-width:0.999999;stroke-linecap:round;stroke-linejoin:miter;stroke-miterlimit:4;stroke-dasharray:none;stroke-opacity:1"
         d="M 98.930982,37.746518 C 127.74619,89.022308 156.56114,140.29768 185.37585,191.5726"
         transform="matrix(0.26458334,0,0,0.26458334,62.675499,167.42733)" />
      <path
         id="path4039"
         style="fill:none;stroke:#4c4c4c;stroke-width:0.999999;stroke-linecap:round;stroke-linejoin:miter;stroke-miterlimit:4;stroke-dasharray:none;stroke-opacity:1"
         d="m 158.82837,42.902361 c 29.45718,52.418152 58.91406,104.835849 88.37072,157.253059"
         transform="matrix(0.26458334,0,0,0.26458334,62.675499,167.42733)" />
      <path
         id="path4037"
         style="fill:none;stroke:#4c4c4c;stroke-width:0.999999;stroke-linecap:round;stroke-linejoin:miter;stroke-miterlimit:4;stroke-dasharray:none;stroke-opacity:1"
         d="m 271.13751,141.32332 c 8.45581,15.04686 16.9116,30.09368 25.36736,45.14046"
         transform="matrix(0.26458334,0,0,0.26458334,62.675499,167.42733)" />
      <path
         id="path4033"
         style="fill:none;stroke:#4c4c4c;stroke-width:0.999999;stroke-linecap:round;stroke-linejoin:miter;stroke-miterlimit:4;stroke-dasharray:none;stroke-opacity:1"
         d="m 215.55654,42.418619 c 5.31172,9.452053 10.62344,18.90409 15.93514,28.356111"
         transform="matrix(0.26458334,0,0,0.26458334,62.675499,167.42733)" />
      <path
         id="path4031"
         style="fill:none;stroke:#4c4c4c;stroke-width:0.999999;stroke-linecap:round;stroke-linejoin:miter;stroke-miterlimit:4;stroke-dasharray:none;stroke-opacity:1"
         d="m 301.15096,93.301564 c 12.38143,22.032386 24.76281,44.064686 37.14415,66.096906"
         transform="matrix(0.26458334,0,0,0.26458334,62.675499,167.42733)" />
      <path
         id="path4027"
         style="fill:none;stroke:#4c4c4c;stroke-width:0.999999;stroke-linecap:round;stroke-linejoin:miter;stroke-miterlimit:4;stroke-dasharray:none;stroke-opacity:1"
         d="m 263.91099,27.034128 c 8.06623,14.353623 16.13244,28.707209 24.19864,43.06076"
         transform="matrix(0.26458334,0,0,0.26458334,62.675499,167.42733)" />
      <path
         id="path4025"
         style="fill:none;stroke:#4c4c4c;stroke-width:0.999999;stroke-linecap:round;stroke-linejoin:miter;stroke-miterlimit:4;stroke-dasharray:none;stroke-opacity:1"
         d="m 53.570753,58.45916 c 22.362032,39.792528 44.7239,79.58483 67.085627,119.37686"
         transform="matrix(0.26458334,0,0,0.26458334,62.675499,167.42733)" />
      <path
         id="path4023"
         style="fill:none;stroke:#4c4c4c;stroke-width:0.999999;stroke-linecap:round;stroke-linejoin:miter;stroke-miterlimit:4;stroke-dasharray:none;stroke-opacity:1"
         d="m 128.2181,39.147173 c 29.96767,53.3266 59.93509,106.652747 89.90225,159.978397"
         transform="matrix(0.26458334,0,0,0.26458334,62.675499,167.42733)" />
      <path
         id="path4021"
         style="fill:none;stroke:#4c4c4c;stroke-width:0.999999;stroke-linecap:round;stroke-linejoin:miter;stroke-miterlimit:4;stroke-dasharray:none;stroke-opacity:1"
         d="m 240.76332,137.98826 c 10.73648,19.10525 21.47293,38.21045 32.20935,57.31557"
         transform="matrix(0.26458334,0,0,0.26458334,62.675499,167.42733)" />
      <path
         id="path4017"
         style="fill:none;stroke:#4c4c4c;stroke-width:0.999999;stroke-linecap:round;stroke-linejoin:miter;stroke-miterlimit:4;stroke-dasharray:none;stroke-opacity:1"
         d="m 188.39841,44.806411 c 10.04326,17.871704 20.0865,35.743355 30.12971,53.614952"
         transform="matrix(0.26458334,0,0,0.26458334,62.675499,167.42733)" />
      <path
         id="path4015"
         style="fill:none;stroke:#4c4c4c;stroke-width:0.999999;stroke-linecap:round;stroke-linejoin:miter;stroke-miterlimit:4;stroke-dasharray:none;stroke-opacity:1"
         d="m 292.08911,127.89116 c 8.72467,15.5253 17.44932,31.05055 26.17394,46.57576"
         transform="matrix(0.26458334,0,0,0.26458334,62.675499,167.42733)" />
      <path
         id="path4011"
         style="fill:none;stroke:#4c4c4c;stroke-width:0.999999;stroke-linecap:round;stroke-linejoin:miter;stroke-miterlimit:4;stroke-dasharray:none;stroke-opacity:1"
         d="m 240.34956,35.822172 c 4.49284,7.994868 8.98567,15.989725 13.47849,23.984572"
         transform="matrix(0.26458334,0,0,0.26458334,62.675499,167.42733)" />
      <path
         id="path4009"
         style="fill:none;stroke:#4c4c4c;stroke-width:0.999999;stroke-linecap:round;stroke-linejoin:miter;stroke-miterlimit:4;stroke-dasharray:none;stroke-opacity:1"
         d="m 287.09313,17.571136 c 23.06718,41.047407 46.13424,82.094548 69.20111,123.141384"
         transform="matrix(0.26458334,0,0,0.26458334,62.675499,167.42733)" />
      <path
         id="path4007"
         style="fill:none;stroke:#4c4c4c;stroke-width:0.999999;stroke-linecap:round;stroke-linejoin:miter;stroke-miterlimit:4;stroke-dasharray:none;stroke-opacity:1"
         d="m 310.88658,9.196006 c 20.15958,35.873384 40.31905,71.74658 60.47841,107.619544"
         transform="matrix(0.26458334,0,0,0.26458334,62.675499,167.42733)" />
      <path
         id="path4005"
         style="fill:none;stroke:#4c4c4c;stroke-width:0.999999;stroke-linecap:round;stroke-linejoin:miter;stroke-miterlimit:4;stroke-dasharray:none;stroke-opacity:1"
         d="M 338.04226,6.8037541 C 352.33031,32.228937 366.61828,57.654007 380.90622,83.079002"
         transform="matrix(0.26458334,0,0,0.26458334,62.675499,167.42733)" />
    </g>
    <path
       style="fill:none;stroke:#000000;stroke-width:0.529167;stroke-linecap:butt;stroke-linejoin:miter;stroke-miterlimit:4;stroke-dasharray:none;stroke-opacity:1"
       d="m 65.758468,198.50004 c 3.267805,-9.49504 8.654463,-19.15462 17.797244,-21.44432 9.14278,-2.2897 22.040788,2.79024 34.665248,1.03308 12.62446,-1.75716 24.97488,-10.35102 33.62448,-10.3967 8.64961,-0.0457 13.59773,8.45614 14.2214,17.06007 0.62367,8.60394 -3.07697,17.30916 -10.65429,24.47979 -7.57732,7.17063 -19.03083,12.80613 -30.00995,12.62342 -10.97912,-0.1827 -21.48341,-6.18372 -32.272817,-6.35348 -10.789405,-0.16976 -21.863056,5.49185 -26.825561,3.65759 -4.962505,-1.83426 -3.813558,-11.16442 -0.545754,-20.65945 z"
       id="path18629"
       sodipodi:nodetypes="cccccccccc"
       inkscape:original-d="m 63.639662,198.6645 c 5.386925,-9.65932 10.773585,-19.3189 16.15998,-28.97875 12.898795,5.08041 25.796808,10.16035 38.694818,15.24013 12.35117,-8.59394 24.70159,-17.1878 37.05198,-25.78209 4.94869,8.50259 9.89681,17.0044 14.84497,25.50646 -3.70059,8.70599 -7.40122,17.41121 -11.10233,26.11667 -11.4537,5.63598 -22.90721,11.27148 -34.36121,16.90683 -10.50444,-6.00099 -21.00873,-12.002 -31.513497,-18.0034 -11.073831,5.66211 -22.147483,11.32372 -33.22162,16.98518 1.149257,-9.33026 2.298205,-18.66042 3.446909,-27.99103 z"
       inkscape:path-effect="#path-effect18631"
       sodipodi:insensitive="true" />
    <path
       id="path1016"
       style="fill:none;stroke:#000000;stroke-width:0.529167;stroke-linecap:round;stroke-linejoin:round;stroke-miterlimit:4;stroke-dasharray:none;stroke-opacity:1"
       d="m 93.98899,177.68409 -2.423835,-1.05435 m 2.423835,-1.05436 -2.423835,1.05436" />
    <text
       xml:space="preserve"
       style="font-size:11.2889px;line-height:1.25;font-family:'Patrick Hand';-inkscape-font-specification:'Patrick Hand';stroke-width:0.264583"
       x="63.975178"
       y="184.45198"
       id="text33415"><tspan
         sodipodi:role="line"
         id="tspan33413"
         style="stroke-width:0.264583"
         x="63.975178"
         y="184.45198">C</tspan></text>
    <path
       id="path1428"
       style="fill:none;stroke:#000000;stroke-width:0.529167;stroke-linecap:round;stroke-linejoin:round;stroke-miterlimit:4;stroke-dasharray:none;stroke-opacity:1"
       d="m 65.007385,204.64909 -1.511625,2.16832 m -0.555678,-2.58415 0.555678,2.58415" />
    <path
       id="path1430"
       style="fill:none;stroke:#000000;stroke-width:0.529167;stroke-linecap:round;stroke-linejoin:round;stroke-miterlimit:4;stroke-dasharray:none;stroke-opacity:1"
       d="m 91.556111,214.46748 2.429838,1.04044 m -2.417753,1.06823 2.417753,-1.06823" />
    <path
       id="path1432"
       style="fill:none;stroke:#000000;stroke-width:0.529167;stroke-linecap:round;stroke-linejoin:round;stroke-miterlimit:4;stroke-dasharray:none;stroke-opacity:1"
       d="m 144.43299,215.84917 2.62114,-0.34112 m -1.53748,2.15008 1.53748,-2.15008" />
    <path
       id="path1434"
       style="fill:none;stroke:#000000;stroke-width:0.529167;stroke-linecap:round;stroke-linejoin:round;stroke-miterlimit:4;stroke-dasharray:none;stroke-opacity:1"
       d="m 161.2734,173.82538 -0.70975,-2.54617 m 2.34656,1.2167 -2.34656,-1.2167" />
    <circle
       style="opacity:0.999536;fill:#000000;fill-rule:evenodd;stroke-width:0.529167;stroke-linecap:round;stroke-linejoin:round"
       id="path4083"
       cx="131.49658"
       cy="194.17136"
       r="1.3229167" />
    <text
       xml:space="preserve"
       style="font-size:8.46667px;line-height:1.25;font-family:'Patrick Hand';-inkscape-font-specification:'Patrick Hand';stroke-width:0.264583"
       x="132.75471"
       y="198.98291"
       id="text5561"><tspan
         sodipodi:role="line"
         id="tspan5559"
         style="font-size:8.46667px;stroke-width:0.264583"
         x="132.75471"
         y="198.98291">a</tspan></text>
    <path
       style="fill:none;stroke:#000000;stroke-width:0.264583px;stroke-linecap:butt;stroke-linejoin:miter;stroke-opacity:1;marker-start:url(#Arrow2Mstart);marker-end:url(#Arrow2Mend)"
       d="m 132.0996,192.64038 c 1.0794,-2.7449 2.15885,-5.48993 3.23835,-8.23511"
       id="path1127"
       inkscape:path-effect="#path-effect1129"
       inkscape:original-d="m 132.0996,192.64038 c 1.07972,-2.74477 2.15916,-5.48981 3.23835,-8.23511"
       sodipodi:nodetypes="cc" />
    <text
       xml:space="preserve"
       style="font-size:3.52777px;line-height:1.25;font-family:'Patrick Hand';-inkscape-font-specification:'Patrick Hand';stroke-width:0.264583"
       x="134.17451"
       y="189.79709"
       id="text3717"><tspan
         sodipodi:role="line"
         id="tspan3715"
         style="stroke-width:0.264583"
         x="134.17451"
         y="189.79709">ρ</tspan></text>
    <circle
       style="opacity:0.999536;fill:none;fill-rule:evenodd;stroke:#000000;stroke-width:0.529167;stroke-linecap:round;stroke-linejoin:round;stroke-miterlimit:4;stroke-dasharray:none;stroke-opacity:1"
       id="path896"
       cx="131.49658"
       cy="194.17136"
       r="11.0524" />
  </g>
  <g
     inkscape:groupmode="layer"
     id="layer2"
     inkscape:label="Layer 2"
     style="display:none"
     transform="translate(-62.675499,-167.42733)">
    <path
       style="display:none;fill:none;stroke:#4c4c4c;stroke-width:0.264583px;stroke-linecap:butt;stroke-linejoin:miter;stroke-opacity:1"
       d="M 28.170821,93.529109 C 41.008367,116.37313 53.84575,139.21685 66.682959,162.06027"
       id="path25644"
       inkscape:original-d="M 28.170821,93.529109 C 41.008465,116.37307 53.845844,139.2168 66.682959,162.06027"
       inkscape:path-effect="#path-effect25646-3"
       inkscape:label="hash" />
    <path
       style="display:inline;fill:none;stroke:#000000;stroke-width:0.529167;stroke-linecap:butt;stroke-linejoin:miter;stroke-miterlimit:4;stroke-dasharray:none;stroke-opacity:1"
       d="m 65.758468,134.99964 c 3.267805,-9.49504 8.654463,-19.15462 17.797244,-21.44432 9.14278,-2.2897 22.040788,2.79024 34.665258,1.03308 12.62446,-1.75715 24.97488,-10.35101 33.62447,-10.39669 8.6496,-0.0457 13.59772,8.45613 14.2214,17.06006 0.62367,8.60394 -3.07697,17.30916 -10.65429,24.47979 -7.57732,7.17063 -19.03083,12.80613 -30.00995,12.62342 -10.97912,-0.1827 -21.48341,-6.18372 -32.272817,-6.35348 -10.789405,-0.16976 -21.863056,5.49185 -26.825561,3.65759 -4.962505,-1.83426 -3.813558,-11.16442 -0.545754,-20.65945 z"
       id="path25605"
       inkscape:path-effect="#path-effect25609"
       inkscape:original-d="m 63.639662,135.1641 c 5.386925,-9.65932 10.773585,-19.3189 16.15998,-28.97875 12.898795,5.08041 25.796808,10.16035 38.694818,15.24013 12.35117,-8.59394 24.70159,-17.1878 37.05198,-25.782063 4.94869,8.502563 9.89681,17.004373 14.84497,25.506433 -3.70059,8.70599 -7.40122,17.41121 -11.10233,26.11667 -11.4537,5.63598 -22.90721,11.27148 -34.36121,16.90683 -10.50444,-6.00099 -21.00873,-12.002 -31.513497,-18.0034 -11.073831,5.66211 -22.147483,11.32372 -33.22162,16.98518 1.149257,-9.33026 2.298205,-18.66042 3.446909,-27.99103 z"
       sodipodi:nodetypes="cccccccccc"
       inkscape:label="blob" />
  </g>
</svg>
